{
    "id": "com.reltio.plugins.settings",
    "name": "Settings Perspective",
    "version": "1.0.0",
    "provider-name": "Reltio.com",
    "requirements": [
        "com.reltio.plugins.entity"
    ],
    "session": [
        "com.reltio.plugins.settings.session.MUser"
    ],
    "extensions": [
        {
            "point": "com.reltio.plugins.ui.action",
            "id": "com.reltio.plugins.settings.UserManagementButton",
            "class": "com.reltio.plugins.ui.actions.AdminAction",
            "parent": "com.reltio.plugins.ui.SettingsButton",
            "label": "Settings",
            "type": "com.reltio.plugins.ui.first_level_action",
            "position": 0
        },
        {
            "point": "com.reltio.plugins.ui.action",
            "id": "com.reltio.plugins.settings.user.UserRoles",
            "class": "com.reltio.plugins.ui.actions.Action",
            "label": "User Roles",
            "icon": "https://s3.amazonaws.com/reltio.images/settings-test/roles-inactive.png",
            "selectedIcon": "https://s3.amazonaws.com/reltio.images/settings-test/roles-active.png",
            "perspective": "com.reltio.plugins.settings.SettingsPerspective",
            "type": "com.reltio.plugins.ui.side_action",
            "parent": "com.reltio.plugins.settings.UserManagementButton",
            "position": 0
        },
        {
            "point": "com.reltio.plugins.ui.view",
            "id": "com.reltio.plugins.settings.user.UserManagementView",
            "class": "com.reltio.plugins.settings.user.UserManagementView"
        },
        {
            "point": "com.reltio.plugins.ui.perspective",
            "id": "com.reltio.plugins.settings.SettingsPerspective",
            "class": "com.reltio.plugins.ui.Perspective",
            "offset-right": 0,
            "layout": {
                "layout": "scroll",
                "items": [
                    {
                        "view": "com.reltio.plugins.settings.user.UserManagementView"
                    }
                ]
            }
        },
        {
            "point": "com.reltio.plugins.ui.action",
            "id": "com.reltio.plugins.settings.notifications",
            "class": "com.reltio.plugins.ui.actions.PowerAdminAction",
            "label": "Notifications",
            "icon": "com/reltio/icons/side-panel/icon_notification.png",
            "selectedIcon": "com/reltio/icons/side-panel/icon_notification_sel.png",
            "perspective": "com.reltio.plugins.settings.NotificationsPerspective",
            "type": "com.reltio.plugins.ui.side_action",
            "parent": "com.reltio.plugins.settings.UserManagementButton",
            "position": 4
        },
        {
            "point": "com.reltio.plugins.ui.view",
            "id": "com.reltio.plugins.settings.notifications.UINotificationView",
            "class": "com.reltio.plugins.settings.notifications.UINotificationView",
            "environments": [
                "https://uat.reltio.com"
            ]
        },
        {
            "point": "com.reltio.plugins.ui.perspective",
            "id": "com.reltio.plugins.settings.NotificationsPerspective",
            "class": "com.reltio.plugins.ui.Perspective",
            "layout": {
                "layout": "scroll",
                "items": [
                    {
                        "view": "com.reltio.plugins.settings.notifications.UINotificationView"
                    }
                ]
            }
        }
    ]
}
